{
  "shops": [
    {
      "id": "1",
      "title": "Рыбный мир 1",
      "liked": false,
      "avatarUrl": "img/shop_avatar_70x70x2.png",
      "description": "Свежые продукты и морепродукты",
      "rate": 4.3,
      "bonusPercents": "5 - 10"
    },
    {
      "id": "2",
      "title": "Рыбный мир 2",
      "liked": true,
      "avatarUrl": "img/shop_avatar_70x70x2.png",
      "description": "Свежые продукты и морепродукты",
      "rate": 4.3,
      "bonusPercents": "5 - 10"
    },
    {
      "id": "3",
      "title": "Рыбный мир 3",
      "liked": false,
      "avatarUrl": "img/shop_avatar_70x70x2.png",
      "description": "Свежые продукты и морепродукты",
      "rate": 4.3,
      "bonusPercents": "5 - 10"
    },
    {
      "id": "4",
      "title": "Рыбный мир 4",
      "liked": true,
      "avatarUrl": "img/shop_avatar_70x70x2.png",
      "description": "Свежые продукты и морепродукты",
      "rate": 4.3,
      "bonusPercents": "5 - 10"
    },
    {
      "id": "5",
      "title": "Рыбный мир 5",
      "liked": false,
      "avatarUrl": "img/shop_avatar_70x70x2.png",
      "description": "Свежые продукты и морепродукты",
      "rate": 4.3,
      "bonusPercents": "5 - 10"
    },
    {
      "id": "6",
      "title": "Рыбный мир 6",
      "liked": false,
      "avatarUrl": "img/shop_avatar_70x70x2.png",
      "description": "Свежые продукты и морепродукты",
      "rate": 4.3,
      "bonusPercents": "5 - 10"
    }
  ]
}